latitud,longitud,paraje,esc,contacto,horario
-33.0143,-64.7317,Rodeo Viejo (Campo La Piedra),Dr. Carlos Saavedra Lamas,Claudio Delfino,8 - 13
-33.0099,-64.6256,La Aguada,San Isidro Labrador,Sandra Tamiozzo,13 - 17
-32.9694,-64.6483,La Aguada (Pzo del Carril),AyV UNRC,Nené,8 - 18
-32.9536,-64.6040,La Aguada (Norte),IPEM Nro 27 Dr. René Favaloro Anexo La Aguada. Nivel secundario,Maximiliano Bogni,8 - 12
-33.0717,-64.5793,Cuatro Vientos,Antonio Sabral,Graciela Sack,8.15 - 13.15
-33.1849,-64.7258,Carolina El Potosí,Domingo F. Sarmiento,Iliana Lanfranco,8 - 13
-32.8127,-64.6058,Rodeo Viejo,Remedios Escalada de San Martín,Alejandra Barroso,8.30 - 12.30
-32.9476,-64.5140,Costa del Tambo,,Valentin Bruno,13 - 17
